[gd_scene load_steps=5 format=3 uid="uid://kovo6223rt36"]

[ext_resource type="Texture2D" uid="uid://dcrpeoviq1lyu" path="res://icon.svg" id="1_8k8ae"]
[ext_resource type="Script" path="res://Scenes/levels/level.gd" id="1_gyigy"]
[ext_resource type="Script" path="res://Scenes/levels/Logo.gd" id="2_dk3w7"]
[ext_resource type="PackedScene" uid="uid://c2sy05du2amyd" path="res://Scenes/player/player.tscn" id="4_chdhe"]

[node name="Level" type="Node2D"]
script = ExtResource("1_gyigy")

[node name="Player" parent="." instance=ExtResource("4_chdhe")]
position = Vector2(481, 297)

[node name="Logo" type="Sprite2D" parent="."]
texture = ExtResource("1_8k8ae")
script = ExtResource("2_dk3w7")
